<?xml version="1.0" encoding="windows-1251"?>
<upgrade xmlns:xsi="http://www.w3.org/2001/XMLSchema-instance" xmlns:xsd="http://www.w3.org/2001/XMLSchema">
  <TreePartName>Root</TreePartName>
  <NewSpriteName>
	Assets/Textures/Leaf2.png
  </NewSpriteName>
  <NewUpgradeComponent />
  <UpgradeCost>
    <item>
      <key>
        <ResourceType>Sun</ResourceType>
      </key>
      <value>
        <float>20</float>
      </value>
    </item>
    <item>
      <key>
        <ResourceType>Mineral</ResourceType>
      </key>
      <value>
        <float>20</float>
      </value>
    </item>
    <item>
      <key>
        <ResourceType>Water</ResourceType>
      </key>
      <value>
        <float>20</float>
      </value>
    </item>
  </UpgradeCost>
  <ConsumptionChange>
    <item>
      <key>
        <ResourceType>Sun</ResourceType>
      </key>
      <value>
        <float>1</float>
      </value>
    </item>
    <item>
      <key>
        <ResourceType>Mineral</ResourceType>
      </key>
      <value>
        <float>1</float>
      </value>
    </item>
    <item>
      <key>
        <ResourceType>Water</ResourceType>
      </key>
      <value>
        <float>1</float>
      </value>
    </item>
  </ConsumptionChange>
  <ProductionChange>
    <item>
      <key>
        <ResourceType>Sun</ResourceType>
      </key>
      <value>
        <float>2</float>
      </value>
    </item>
    <item>
      <key>
        <ResourceType>Mineral</ResourceType>
      </key>
      <value>
        <float>2</float>
      </value>
    </item>
    <item>
      <key>
        <ResourceType>Water</ResourceType>
      </key>
      <value>
        <float>2</float>
      </value>
    </item>
  </ProductionChange>
</upgrade>