%YAML 1.1
%TAG !u! tag:unity3d.com,2011:
--- !u!78 &1
TagManager:
  serializedVersion: 2
  tags:
  - Plan
  - plantPart
  - HelpBox
  - Mineral
  - Sun
  - Water
  - Leaf
  - Body
  - Root
  - ContextMenuItem
  - ButtonBody
  - ButtonRoot
  - ButtonLeaf
  - ButtonCancel
  - ButtonRemove
  - Bug
  - Soil
  - PlaceHolder
  - FlyingInsect
  - TreeBody
  - plan
  - ButtonUpgrade
  layers:
  - Default
  - TransparentFX
  - Ignore Raycast
  - 
  - Water
  - UI
  - 
  - 
  - Plant
  - Resource
  - Plan
  - 
  - 
  - 
  - 
  - 
  - 
  - 
  - 
  - 
  - 
  - 
  - 
  - 
  - 
  - 
  - 
  - 
  - 
  - 
  - 
  - 
  m_SortingLayers:
  - name: Default
    uniqueID: 0
    locked: 0
  - name: 1
    uniqueID: 1739689249
    locked: 0
  - name: 2
    uniqueID: 3716370991
    locked: 0
